{
  "kind": "collectionType",
  "collectionName": "restaurants",
  "info": {
    "name": "Restaurant"
  },
  "options": {
    "increments": true,
    "timestamps": true
  },
  "attributes": {
    "name": {
      "type": "string",
      "required": true,
      "unique": true
    },
    "description": {
      "type": "richtext"
    },
    "categories": {
      "collection": "category",
      "via": "restaurants"
    },
    "project": {
      "model": "projects-division"
    }
  }
}
