{
  "routes": [
    {
      "method": "GET",
      "path": "/projects-divisions",
      "handler": "projects-division.find",
      "config": {
        "policies": []
      }
    },
    {
      "method": "GET",
      "path": "/projects-divisions/count",
      "handler": "projects-division.count",
      "config": {
        "policies": []
      }
    },
    {
      "method": "GET",
      "path": "/projects-divisions/:id",
      "handler": "projects-division.findOne",
      "config": {
        "policies": []
      }
    },
    {
      "method": "POST",
      "path": "/projects-divisions",
      "handler": "projects-division.create",
      "config": {
        "policies": []
      }
    },
    {
      "method": "PUT",
      "path": "/projects-divisions/:id",
      "handler": "projects-division.update",
      "config": {
        "policies": []
      }
    },
    {
      "method": "DELETE",
      "path": "/projects-divisions/:id",
      "handler": "projects-division.delete",
      "config": {
        "policies": []
      }
    }
  ]
}
